{
    "swagger": "2.0",
    "info": {
        "title": "Shop Fashion ",
        "description": "Shop Fashion  API description",
        "contact": {
            "email": "darius@matulionis.lt"
        },
        "version": "1.0.0"
    },
    "schemes": [
        "http",
        "https"
    ],
    "paths": {
        "/api/login": {
            "post": {
                "tags": [
                    "Auth"
                ],
                "summary": "Login Form",
                "operationId": "login",
                "parameters": [
                    {
                        "name": "email",
                        "in": "formData",
                        "required": true,
                        "type": "string"
                    },
                    {
                        "name": "password",
                        "in": "formData",
                        "required": true,
                        "type": "string"
                    }
                ],
                "responses": {
                    "200": {
                        "description": "login successful "
                    },
                    "401": {
                        "description": "Unauthozire"
                    },
                    "500": {
                        "description": "internal server error"
                    }
                },
                "security": [
                    {
                        "ApiKeyAuth": []
                    }
                ]
            }
        }
    },
    "definitions": {},
    "securityDefinitions": {
        "APIKeyHeader": {
            "type": "apiKey",
            "name": "Authentication",
            "in": "header"
        }
    }
}